Project 2~Women's World Cup
…
newdata%>%group_by(country)%>%summarize(mean(score),mean(year))

## # A tibble: 36 x 3
##    country        `mean(score)` `mean(year)`
##    <chr>                  <dbl>        <dbl>
##  1 Argentina              0.556        2010.
##  2 Australia              1.42         2008.
##  3 Brazil                 1.94         2005.
##  4 Cameroon               1.5          2017 
##  5 Canada                 1.26         2008.
##  6 Chile                  0.667        2019 
##  7 China PR               1.64         2004.
##  8 Chinese Taipei         0.5          1991 
##  9 Colombia               0.571        2013.
## 10 Costa Rica             1            2015 
## # … with 26 more rows
…
